,EG_SCALE_ADCLIN__1up,EG_SCALE_E4SCINTILLATOR__ETABIN2__1up,EG_SCALE_G4__1up,EG_SCALE_L1GAIN__1up,EG_SCALE_L2MEDIUMGAIN__1up,EG_SCALE_LARELECCALIB__1up,EG_SCALE_LARELECUNCONV__ETABIN0__1up,EG_SCALE_LARELECUNCONV__ETABIN1__1up,EG_SCALE_LARUNCONVCALIB__ETABIN0__1up,EG_SCALE_LARUNCONVCALIB__ETABIN1__1up,EG_SCALE_LEAKAGEELEC__1up,EG_SCALE_MATCALO__ETABIN3__1up,EG_SCALE_MATCALO__ETABIN4__1up,EG_SCALE_MATCALO__ETABIN5__1up,EG_SCALE_MATCALO__ETABIN6__1up,EG_SCALE_MATCALO__ETABIN8__1up,EG_SCALE_MATCRYO__ETABIN1__1up,EG_SCALE_MATCRYO__ETABIN3__1up,EG_SCALE_MATCRYO__ETABIN4__1up,EG_SCALE_MATCRYO__ETABIN5__1up,EG_SCALE_MATCRYO__ETABIN6__1up,EG_SCALE_MATCRYO__ETABIN7__1up,EG_SCALE_MATCRYO__ETABIN8__1up,EG_SCALE_MATCRYO__ETABIN9__1up,EG_SCALE_MATID__ETABIN0__1up,EG_SCALE_MATID__ETABIN1__1up,EG_SCALE_MATID__ETABIN2__1up,EG_SCALE_MATPP0__ETABIN0__1up,EG_SCALE_MATPP0__ETABIN1__1up,EG_SCALE_PEDESTAL__1up,EG_SCALE_PS__ETABIN0__1up,EG_SCALE_PS__ETABIN3__1up,EG_SCALE_PS__ETABIN4__1up,EG_SCALE_PS__ETABIN5__1up,EG_SCALE_PS__ETABIN6__1up,EG_SCALE_PS__ETABIN8__1up,EG_SCALE_S12__ETABIN0__1up,EG_SCALE_S12__ETABIN1__1up,EG_SCALE_S12__ETABIN2__1up,EG_SCALE_S12__ETABIN3__1up,EG_SCALE_S12__ETABIN4__1up,EG_SCALE_S12__ETABIN5__1up,EG_SCALE_S12__ETABIN6__1up,EG_SCALE_TOPOCLUSTER_THRES__1up,EG_SCALE_WTOTS1__ETABIN0__1up,EG_SCALE_WTOTS1__ETABIN1__1up
EG_SCALE_ADCLIN__1up,0.1101226019658884,0.0033478549921819,0.0217448705332348,-0.0025382917997183,-0.0003863649366303,0.0249048736439774,-0.0148256392727014,-0.0050092081105413,0.0211860115098014,0.0022393306725235,-0.0852431585886693,0.0100450283578208,0.0097283766157747,-0.0039810682500014,-0.0039204622118424,0.0006457596196779,0.0133775514665417,0.0142255015655768,0.0119631501237082,-0.0032073986388505,-0.0038617367530983,0.0052869122107103,0.0039524287734729,0.0085183503407664,0.0180302465438666,-0.0056106671844995,0.0105456065981197,0.0057491988660175,0.0420204855897261,-0.0334768669827836,-0.0160845345331496,-0.0160728284048341,-0.028000847198144,-0.0365560361364338,-0.028180609490753,0.0068017207971967,-0.0550365971837018,-0.0342104049812835,-0.0511109534941838,-0.0064893846283192,0.0051567475090025,0.0403021164721201,0.0291854328107039,-0.0334768669827833,-0.0384713556236305,-0.0034872938600482
EG_SCALE_E4SCINTILLATOR__ETABIN2__1up,0.0033478549921811,0.9453874025702368,0.0025032529332569,0.0008830048671663,0.0040976264285059,-0.0013384358850879,-0.0039339913381295,-0.0298861544648856,0.0031880599626376,0.0116780851522002,-0.0031720050815315,-0.0001098464944685,-0.000342214282832,0.0008115970923248,0.0006701299167912,0.0042496503653078,0.0020661129350253,-0.0001120788426696,-0.0004296379722256,0.0006463960649732,0.0006804963582978,0.0353274596331127,0.0277093575961325,-0.0006288795314882,0.00130028129626,0.0008169285155294,0.0096109170596916,0.000526645162094,0.0087719780253539,-0.0053148370422306,0.0008256708044086,0.001964745434929,0.0049032290084762,0.0045718157478135,0.0039556769870526,-0.1367553720590816,0.0079586517536462,0.0059750996302022,0.0067297888155058,0.0009312973738251,-0.1053753373796079,0.0014913664727952,0.0030286339429754,-0.0053148370422311,0.0075806209591243,0.0313467425930828
EG_SCALE_G4__1up,0.021744870533235,0.0025032529332569,0.964331601205304,0.0125749729679575,0.0052154502352858,-0.0156198414081246,0.0619032109796993,0.0035167979361649,-0.0611281100962443,-0.001522274013884,-0.0328855863716295,-0.0121994969054175,-0.0157947453896609,-0.0027019636315467,-0.0026616071712823,-0.0006112536916829,-0.0323398914093292,-0.016811799257289,-0.0193666460483932,-0.0021647534524092,-0.0026513599827613,-0.0024188152914154,-0.0038453852112845,-0.0061887628119534,-0.0374272503127043,-0.0035317595532904,-0.0080398355421752,-0.0128775646554479,-0.025549594130581,0.0496140826221258,0.0225443096488318,0.0136865031042255,0.0281282683848905,0.0019240841702805,0.0017499593246618,0.0048982277287003,0.0486387717488947,0.0303429762188599,0.001735307158248,0.0003358598665719,0.0053769908928872,0.0451420061677387,0.02049448036018,0.0496140826221255,0.0108133249861441,-0.0068134743302568
EG_SCALE_L1GAIN__1up,-0.0025382917997183,0.0008830048671662,0.0125749729679585,0.0306844072284207,-9.806876263340444e-05,0.0428938013118841,0.0037242448133279,0.0106910177403423,-0.0045208854370604,-0.0046495620322076,0.0052296744997543,-0.0005029489103994,-0.0006073238065128,0.0005276425835007,0.0004540628448885,-0.0016638943161398,-0.0045751851594268,-0.0006963293491452,-0.0007458611513277,0.0004223986038915,0.0004478073060364,-0.0090683531944406,-0.0103351903407013,0.0099625043242238,-0.0031140861045965,0.0006807561524941,0.0079709469512328,-0.0011863061896215,0.0807734619641765,-0.0139540224566165,0.0028142021543913,0.0006424920163689,0.0011950738002089,0.0002690676047852,0.0001926326051573,-0.0001894730959601,0.0048936948496467,0.001320308218123,0.0006001746515082,3.5464593449605285e-05,0.0031550287459501,0.0566913824405618,-0.0446841376583023,-0.0139540224566164,-0.0041045551295398,0.0028484090934366
EG_SCALE_L2MEDIUMGAIN__1up,-0.0003863649366303,0.0040976264285058,0.0052154502352862,-9.806876263332288e-05,0.0244287611329116,-0.0055211063814072,-0.023087623387807,-0.0032065544388005,0.0173583894928702,0.0015197515481832,0.0219278056000375,-0.000721942635621,-0.0018243860470869,0.0056544405023536,0.0049450427774603,0.0005589254180863,0.0088360963170306,-0.0008327078895923,-0.002271587104454,0.0045084549108678,0.0050130431635447,0.0015970697555738,0.0033659575477495,-0.0018216785717329,0.0061137605043754,0.0060391754296169,-0.0009858180953942,0.0023718987432111,-0.0075972875930145,-0.0068055658013325,0.0061509494103758,0.009103404153311,0.0228750218127359,0.0265040336915249,0.0227787469713363,0.0115419608005453,0.0460912356137812,0.0278931593845309,0.0391124624115672,0.0053947344780288,0.0067098761157597,-0.0178258923443585,-0.0116995924331575,-0.0068055658013326,0.011027979503414,0.0006015425374046
EG_SCALE_LARELECCALIB__1up,0.0249048736439775,-0.0013384358850872,-0.0156198414081255,0.0428938013118845,-0.0055211063814068,0.9232413815507704,-0.0051322667815382,-0.0242613175709728,0.0111248177314022,0.0105291092068929,-0.0491455045022535,0.0020824879925251,0.0022952607158202,-0.0044684681929859,-0.0042298104471196,0.0036722621503437,0.0164196051436823,0.0029351193778524,0.0028072392179053,-0.0035709755272327,-0.0042558934491528,0.0217186667534148,0.0227677130446815,-0.0296159551947758,0.0099961710183479,-0.0053622634020857,-0.0248179013588411,0.0037292349790843,-0.1103692291971278,0.0063673820665374,-0.0093487104668837,-0.0024695458889387,-0.0047053151226626,-0.0056109567061619,-0.0048944541453941,-0.0013435960422836,-0.0138759966465441,-0.0055281594785355,-0.0094401078310064,-0.0012448925017925,-0.0068364748660399,0.1435457392041183,0.057864305349781,0.0063673820665365,0.0267786002357655,-0.0098478168311765
EG_SCALE_LARELECUNCONV__ETABIN0__1up,-0.0148256392727007,-0.0039339913381295,0.0619032109796976,0.0037242448133275,-0.0230876233878071,-0.0051322667815386,0.569697587753525,0.0071525689290787,0.2762366529763204,-0.0032259602725751,-0.007043120995584,0.0064803628307263,0.0088996604675525,0.1364625801146908,0.1273096387836666,-0.0011413991759915,-0.0083815394895667,0.0088539360535207,0.0109186910068782,0.1089743943059125,0.1279312135568341,-0.0052794637707935,-0.0069887510736349,-0.0021891119813419,0.0728607681850671,0.159949824573142,-0.0045935372964409,0.027002223757016,-0.010391053867104,-0.0503698732769835,-0.0033576105453438,-0.0118042036828499,-0.0269373395332654,-0.0876806933470959,-0.0527319475311908,-0.011971895823347,-0.0321241819505575,-0.0309598372731894,-0.0590508112537714,-0.007241600313137,-0.0061462783586498,0.0201282313750159,0.0087953486873317,-0.0503698732769834,-0.0037353276327092,0.0025951615869865
EG_SCALE_LARELECUNCONV__ETABIN1__1up,-0.0050092081105414,-0.0298861544648826,0.003516797936165,0.0106910177403422,-0.0032065544388004,-0.0242613175709722,0.0071525689290785,0.7175515245628624,-0.0066644906645852,0.1228083690759377,0.0095349030318813,8.608042775820451e-05,0.0003521535230079,-0.000717468426564,-0.000581906265824,0.0438300304766392,-0.0057143436394893,6.812124702302812e-05,0.0004440647766858,-0.0005710109384693,-0.0005904059952149,0.2415619048134323,0.2723373481073445,-0.0090457697470091,-0.0033563400096863,-0.0006994252633703,0.0800585894310299,-0.0013372128135271,0.0696372362578818,-0.0115905904841202,0.0017407213227773,-0.0019886207899447,-0.0049581354635128,-0.0032721276718102,-0.0029066992857162,-0.0305855962942907,-0.0024438494912887,-0.0060203642707191,-0.0049162327010965,-0.0006915721853798,-0.1062097126544702,0.020787721901014,0.0108145890713326,-0.0115905904841207,-0.0099290691189529,-0.0193499667498578
EG_SCALE_LARUNCONVCALIB__ETABIN0__1up,0.0211860115098012,0.0031880599626377,-0.0611281100962446,-0.0045208854370609,0.0173583894928704,0.0111248177314007,0.2762366529763215,-0.0066644906645858,0.7946743196922903,0.0029733048388598,-0.0101152853348719,-0.0269639003134493,-0.0343926523577555,-0.0657146143077936,-0.0613600090962914,0.0010217823506104,-0.0233501737739754,-0.0372441537599242,-0.0421578116307876,-0.0524831752355911,-0.061631586664492,0.0054733566827216,0.0062777119123997,0.0042150732216509,-0.084691998445101,-0.0772740091643558,0.0066064647810405,-0.0290868960920342,0.0199258869896233,0.0673112351906152,0.0199608456345909,0.0293752005901006,0.0594671593541316,0.0431784791382969,0.0265748057354299,0.0092988287920478,0.0528852207857813,0.0641947409632774,0.0298765750658464,0.0037758120302497,0.004773190740814,-0.0116309178933289,-0.0028068489899892,0.0673112351906152,0.0024728324610348,-0.0039522642284824
EG_SCALE_LARUNCONVCALIB__ETABIN1__1up,0.0022393306725238,0.0116780851521988,-0.0015222740138846,-0.0046495620322075,0.0015197515481833,0.0105291092068923,-0.0032259602725755,0.1228083690759393,0.0029733048388595,0.9465464600978376,-0.0039914335868076,-3.921772518439817e-05,-0.0001615242736575,0.0003501968819413,0.0002865499323624,-0.0190758895772601,0.0024956439931712,-3.1052520993002395e-05,-0.0002035359176227,0.000278774871006,0.0002905959440795,-0.1046079025178723,-0.1184989608526472,0.0039243780905098,0.0014780837802751,0.0003463348646607,-0.0347946909728437,0.0005890824222986,-0.0303393630737754,0.0049802498707495,-0.0007316936637977,0.0009000277871133,0.0022490526019227,0.0015311582695567,0.0013595175297401,0.010311810091107,0.0012028055665191,0.0027294286640524,0.0023047923301851,0.0003235458890646,0.0440557612294723,-0.0091381137585096,-0.0047461403449224,0.0049802498707498,0.0042678893718043,0.0059924861710136
EG_SCALE_LEAKAGEELEC__1up,-0.0852431585886692,-0.0031720050815328,-0.0328855863716286,0.0052296744997545,0.0219278056000374,-0.0491455045022549,-0.0070431209955835,0.0095349030318817,-0.0101152853348729,-0.0039914335868071,0.1857221901585655,-0.0035824215732271,-0.0039579192499068,0.0137000371970332,0.0128264939818942,-0.0010998072504822,-0.0310522184145923,-0.005065175061904,-0.0048269159985061,0.0109501834154594,0.0128864194186778,-0.0123465960085426,-0.0066707740197946,-0.0167961869430797,-0.0159346467106501,0.0164008778469547,-0.0206942760132959,-0.0060557106854901,-0.082490456268206,0.0430590314407802,0.0190882767873005,0.0036289702502644,0.0068864533619181,0.0241867530935546,0.0205733425730964,-0.0057822220559452,0.0308108410323178,0.0080037825075419,0.0386389735845243,0.0050713163404378,-0.0063672891296823,-0.0875618757025445,-0.062375802248588,0.04305903144078,-0.1072702010431761,0.0465831688445692
EG_SCALE_MATCALO__ETABIN3__1up,0.0100450283578207,-0.0001098464944684,-0.0121994969054175,-0.0005029489103994,-0.000721942635621,0.002082487992525,0.0064803628307261,8.608042775813802e-05,-0.0269639003134496,-3.9217725184438806e-05,-0.0035824215732269,0.9615420368861508,-0.0475026007267089,0.0154101302174722,0.0143462636256957,-2.137975017629913e-05,0.0138157306310052,-0.0533651733460075,-0.0581961018320934,0.0123023934042652,0.014429779138381,2.8982853676478447e-05,-0.0001060057313767,0.0007526708387878,-0.0384124715335038,0.0179325134406752,0.0007847927933155,-0.0098538372124497,0.0032783452887131,0.0059598073114107,-0.0105328826229209,0.0327556880214265,0.0601852949108411,-0.0125981231406028,-0.0078867467514495,-0.0004050955513904,-0.0250733659898353,0.0616874988067272,-0.0102662124785169,-0.0012496645317248,-0.0003588666501166,-0.0006413430419703,0.0002490616695052,0.0059598073114106,-0.0006648765523354,0.0024631018974319
EG_SCALE_MATCALO__ETABIN4__1up,0.0097283766157748,-0.0003422142828321,-0.015794745389661,-0.0006073238065128,-0.0018243860470869,0.0022952607158203,0.0088996604675522,0.000352153523008,-0.0343926523577556,-0.0001615242736575,-0.0039579192499068,-0.0475026007267088,0.9406673935649916,0.0191898766850052,0.0178723841019564,-6.621217187588353e-05,0.0162724092947011,-0.0658070703799837,-0.0727071304118178,0.0153207226469417,0.0179724783703971,-0.0001307566898402,-0.0003735316711678,0.0008257261690027,-0.0483587925872274,0.0223612939667572,0.0007812979019142,-0.0124309903315155,0.0035203080854176,0.0086495639425961,-0.0126424659739686,0.0420872654475574,0.0790800410080361,-0.0155048707821797,-0.0097293178897514,-0.0011194940303729,-0.0306661233429761,0.0815011747017302,-0.0125478448413441,-0.0015358799767597,-0.0007905297646684,-0.0005688561754211,0.0003263180763992,0.0086495639425959,-0.0014908474806179,0.0029506565123942
EG_SCALE_MATCALO__ETABIN5__1up,-0.0039810682500014,0.0008115970923247,-0.002701963631547,0.0005276425835009,0.0056544405023536,-0.0044684681929861,0.13646258011469,-0.0007174684265638,-0.0657146143077946,0.0003501968819413,0.0137000371970335,0.0154101302174722,0.0191898766850053,0.9394224179305496,-0.0562691700921453,0.0001478148873813,0.0259480050962226,0.0213560823895528,0.0235160195750474,-0.0483691531391141,-0.056552702869126,8.420966846973431e-05,0.0008882338169315,-0.0014896746045826,0.0064102392845596,-0.0706087096437952,-0.0013672581498789,0.0006427089523657,-0.0070077977690732,-0.0119798590732211,-0.0132848156564831,-0.0130448798379977,-0.0240380982975897,0.0354496682384087,0.0200829463415882,0.002791630461628,-0.015511022874492,-0.0244285982111114,0.0210433181385698,0.0024358301823299,0.001447414008786,-0.0075255462665102,-0.0050464817591987,-0.0119798590732213,0.0015779569011927,0.0009603426049299
EG_SCALE_MATCALO__ETABIN6__1up,-0.003920462211842,0.0006701299167912,-0.002661607171282,0.0004540628448884,0.0049450427774602,-0.0042298104471199,0.1273096387836674,-0.0005819062658237,-0.0613600090962909,0.0002865499323623,0.0128264939818937,0.0143462636256957,0.0178723841019565,-0.0562691700921451,0.9474983005384506,0.0001235755320767,0.0239363580518252,0.019880742120984,0.0219015713855703,-0.0449308871761804,-0.0527810849021968,2.133764362844904e-05,0.0007412567839774,-0.0014155336955794,0.0059418039376635,-0.0658178598831398,-0.0013304581092326,0.000558797552619,-0.0066597912708091,-0.0108869120687401,-0.0123608124215603,-0.0122259065562411,-0.02259442012657,0.0360524648422719,0.0214093080495641,0.002333866967797,-0.0148622691957659,-0.0230124935408616,0.0241820281802652,0.002896812557833,0.0011951434685869,-0.006910106629037,-0.0046956346973648,-0.0108869120687403,0.0009332591135745,0.0009946169730454
EG_SCALE_MATCALO__ETABIN8__1up,0.000645759619678,0.0042496503653089,-0.0006112536916829,-0.0016638943161397,0.0005589254180862,0.0036722621503436,-0.0011413991759914,0.0438300304766373,0.0010217823506101,-0.0190758895772589,-0.0010998072504822,-2.137975017627052e-05,-6.62121718758414e-05,0.0001478148873814,0.0001235755320767,0.9931881785911244,0.0008185041018144,-2.153576436676095e-05,-8.304268998993188e-05,0.0001177531052827,0.000125021311821,-0.0373037299618036,-0.0423183133568515,0.0013705856107554,0.0004875936728169,0.0001514383763483,-0.0124604680375672,0.000195840066738,-0.0109634099445933,0.0018689663199101,-0.0002324177767934,0.0003137489473241,0.0007822339603325,0.0005703508411429,0.0005053955449102,0.0037506987341917,0.0004288134702408,0.0009461814933412,0.0008643242377817,0.00012063053909,0.0158391501213248,-0.0034007342552184,-0.0018052425214108,0.0018689663199106,0.0013320860423605,0.0022149683915848
EG_SCALE_MATCRYO__ETABIN1__1up,0.0133775514665418,0.0020661129350253,-0.032339891409329,-0.0045751851594268,0.0088360963170306,0.0164196051436826,-0.008381539489567,-0.0057143436394895,-0.0233501737739752,0.0024956439931711,-0.031052218414592,0.0138157306310053,0.0162724092947011,0.0259480050962225,0.023936358051825,0.0008185041018144,0.9001685468042557,0.0192966591948806,0.0199172790200943,0.0207110555448272,0.0240919728296623,0.0054682132053337,0.0050178596398069,0.005888336991577,-0.0252361427746979,0.0298063617334913,0.0080814343311874,-0.0117704223534965,0.0283195737975695,0.0784396634014654,0.06542326922336,-0.0069410629254576,-0.0086651237606309,-0.0067800593582141,-0.0012100450839975,0.0053447805489406,0.1290867589468653,-0.0064100219083238,0.0027741949112445,0.0006723002796092,0.0030532880768135,0.0039947950041187,0.0066066273820217,0.0784396634014653,0.0020315960015478,-0.0104690420820406
EG_SCALE_MATCRYO__ETABIN3__1up,0.014225501565577,-0.0001120788426697,-0.0168117992572891,-0.0006963293491452,-0.0008327078895923,0.0029351193778525,0.0088539360535206,6.812124702316934e-05,-0.037244153759924,-3.1052520993170155e-05,-0.0050651750619041,-0.0533651733460076,-0.0658070703799835,0.0213560823895527,0.019880742120984,-2.153576436683454e-05,0.0192966591948806,0.9259292479222994,-0.0806167716036947,0.0170491394224214,0.0199970582276306,7.75975609551479e-05,-9.794690110681304e-05,0.0010613314254283,-0.0531566328788199,0.0248479780811901,0.0011228393802255,-0.0136314006892969,0.0046402264259781,0.0080476528598891,-0.014634029304124,0.0450304628151916,0.0823921347612081,-0.0173953991579995,-0.0108719284592649,-0.0004476272706915,-0.0346379552154434,0.0842954005082532,-0.0141392295201896,-0.0017186985072125,-0.0004301274205391,-0.000908196349617,0.0003513574964811,0.008047652859889,-0.0006990321986626,0.0033751831194818
EG_SCALE_MATCRYO__ETABIN4__1up,0.0119631501237083,-0.0004296379722255,-0.0193666460483936,-0.0007458611513277,-0.0022715871044541,0.0028072392179055,0.0109186910068782,0.0004440647766859,-0.0421578116307875,-0.0002035359176226,-0.0048269159985062,-0.0581961018320934,-0.0727071304118179,0.0235160195750474,0.0219015713855701,-8.304268998992409e-05,0.0199172790200944,-0.0806167716036947,0.9109016999755108,0.0187745969208961,0.0220241899567543,-0.0001705585866094,-0.0004691162390602,0.0010099133148484,-0.0592660553596523,0.0274022217160044,0.0009516074105593,-0.0152358128438147,0.0043003407740772,0.0106382561844532,-0.0155109696285853,0.0517179342810588,0.0972600627463882,-0.0190656765160918,-0.0119747991771005,-0.0013980326134773,-0.037716935230151,0.1003044967158265,-0.0154653926117878,-0.0018938846750265,-0.0009855984694982,-0.0007023205572689,0.0003966313526266,0.0106382561844533,-0.001926568134785,0.0036498717691985
EG_SCALE_MATCRYO__ETABIN5__1up,-0.0032073986388505,0.0006463960649734,-0.0021647534524092,0.0004223986038915,0.0045084549108678,-0.0035709755272327,0.1089743943059115,-0.0005710109384696,-0.0524831752355924,0.0002787748710059,0.0109501834154594,0.0123023934042651,0.0153207226469417,-0.0483691531391141,-0.0449308871761809,0.0001177531052827,0.0207110555448272,0.0170491394224215,0.0187745969208963,0.961378820635734,-0.0451572888410885,6.561044961239586e-05,0.0007075494494369,-0.0011905358737717,0.0051125039583799,-0.0563817266221726,-0.0010934116955497,0.0005107197295829,-0.0056010899357914,-0.0095591470675298,-0.010604735853578,-0.0104138730318614,-0.0191916069141888,0.0282900066545312,0.0160272839804167,0.0022250498246539,-0.0123856106896967,-0.019502972641409,0.0167850783324876,0.001943347407308,0.0011534030822273,-0.0060135663909162,-0.0040325845910459,-0.0095591470675296,0.001289756944455,0.000765382064381
EG_SCALE_MATCRYO__ETABIN6__1up,-0.0038617367530979,0.0006804963582976,-0.0026513599827613,0.0004478073060364,0.0050130431635446,-0.0042558934491532,0.1279312135568342,-0.0005904059952147,-0.061631586664493,0.0002905959440795,0.0128864194186774,0.014429779138381,0.0179724783703973,-0.0565527028691261,-0.0527810849021973,0.0001250213118211,0.0240919728296624,0.0199970582276307,0.0220241899567545,-0.0451572888410885,0.9469363040634804,2.5990532985630636e-05,0.0007499601064989,-0.0014244247540906,0.0060045745705117,-0.0661601396890509,-0.0013375699174036,0.0005718502518565,-0.006698090512526,-0.0109584014940464,-0.0124256349707445,-0.0122864911847536,-0.0226937711270785,0.0364532262134544,0.0217000927241614,0.0023589269829259,-0.0148885573090196,-0.0231093945359558,0.0246244446362445,0.0029531466979274,0.0012095474845637,-0.0069534837639137,-0.0047300823618892,-0.0109584014940462,0.0008423922029444,0.0010113975641096
EG_SCALE_MATCRYO__ETABIN7__1up,0.0052869122107093,0.0353274596331161,-0.0024188152914158,-0.0090683531944401,0.0015970697555736,0.021718666753415,-0.0052794637707927,0.24156190481343,0.0054733566827221,-0.1046079025178721,-0.0123465960085417,2.898285367660013e-05,-0.0001307566898404,8.420966846986726e-05,2.133764362842026e-05,-0.0373037299618026,0.0054682132053339,7.759756095494848e-05,-0.0001705585866093,6.561044961287039e-05,2.599053298590732e-05,0.7897892963239467,-0.2319983280979178,0.0080913846191104,0.0031129096553482,-1.2212606511455157e-05,-0.0681819616119136,0.0012215069147331,-0.0577919663561109,0.0095418329798064,-0.001974626567657,0.0014643346804008,0.0036423920592258,0.0016655448372174,0.0014986296643945,0.0500185276379761,0.0008754748701868,0.0044677979931434,0.0024141824572157,0.0003525772007167,0.1072435880677699,-0.0156885637608727,-0.0078918347182459,0.0095418329798065,0.0105127293840217,0.030898627377599
EG_SCALE_MATCRYO__ETABIN8__1up,0.0039524287734734,0.0277093575961346,-0.0038453852112845,-0.0103351903407017,0.0033659575477498,0.0227677130446817,-0.0069887510736357,0.2723373481073417,0.0062777119124,-0.1184989608526494,-0.0066707740197947,-0.0001060057313768,-0.0003735316711678,0.0008882338169314,0.000741256783977,-0.0423183133568483,0.0050178596398069,-9.794690110705192e-05,-0.0004691162390601,0.0007075494494371,0.0007499601064989,-0.2319983280979139,0.737010577224244,0.0085010562125727,0.0030175071036851,0.0009078157808225,-0.077464866606299,0.0012089537498679,-0.0681879640938777,0.0117654086814201,-0.0014806080737535,0.0018554604988272,0.0046489591056276,0.0034020854783615,0.0030198482799403,0.0262261539806788,0.0023565871580774,0.0056262432536547,0.0051619281618554,0.000721122671948,0.1008997842423724,-0.0211398663539047,-0.0113131929024772,0.0117654086814202,0.0079814025827358,0.0099657190251404
EG_SCALE_MATCRYO__ETABIN9__1up,0.0085183503407672,-0.000628879531488,-0.0061887628119534,0.0099625043242239,-0.0018216785717329,-0.0296159551947771,-0.0021891119813418,-0.0090457697470091,0.0042150732216512,0.0039243780905102,-0.016796186943081,0.0007526708387879,0.0008257261690027,-0.0014896746045827,-0.0014155336955796,0.0013705856107554,0.0058883369915769,0.0010613314254284,0.0010099133148484,-0.0011905358737718,-0.0014244247540908,0.0080913846191103,0.0085010562125724,0.9883065665347548,0.0036434052580939,-0.0017933671745612,-0.0099534740956495,0.0013578252867871,-0.0421517728754146,0.0032501694695114,-0.0033576131384755,-0.0008676618857631,-0.0016314722086121,-0.0017689788233346,-0.001542999686862,-0.0008305157060968,-0.0050025270393992,-0.0019133327227562,-0.0029985690485625,-0.0003946628674898,-0.0028029994405687,0.0624298580067472,0.0252335874550666,0.0032501694695113,0.0095710322699378,-0.0033626412192361
EG_SCALE_MATID__ETABIN0__1up,0.0180302465438664,0.00130028129626,-0.0374272503127036,-0.0031140861045965,0.0061137605043755,0.009996171018348,0.0728607681850663,-0.0033563400096863,-0.0846919984451018,0.0014780837802748,-0.0159346467106496,-0.0384124715335039,-0.0483587925872273,0.0064102392845596,0.0059418039376632,0.000487593672817,-0.025236142774698,-0.0531566328788197,-0.0592660553596523,0.0051125039583804,0.0060045745705113,0.003112909655348,0.0030175071036851,0.0036434052580941,0.934126601718844,0.0072525936215156,0.0049556310107235,-0.0204572575806955,0.0171126884717744,0.0484524777731633,0.0164624617688028,0.0367165934277039,0.0711383827876897,-0.0036563512684932,-0.001652772305042,0.0034856201560693,0.0324463936174409,0.0747278337667306,-0.0020226375642427,-0.0001325822788636,0.0017322541422349,-0.0019462065831668,0.0017869682309074,0.0484524777731632,-0.000227997462894,-0.002069262607093
EG_SCALE_MATID__ETABIN1__1up,-0.0056106671844991,0.0008169285155293,-0.0035317595532901,0.0006807561524941,0.0060391754296166,-0.0053622634020853,0.1599498245731416,-0.0006994252633698,-0.0772740091643576,0.0003463348646606,0.0164008778469545,0.0179325134406753,0.0223612939667574,-0.0706087096437956,-0.0658178598831396,0.0001514383763482,0.0298063617334916,0.0248479780811902,0.0274022217160044,-0.0563817266221723,-0.0661601396890512,-1.2212606511092486e-05,0.0009078157808225,-0.0017933671745611,0.0072525936215161,0.9173919693063942,-0.0016959041115414,0.0006301939966447,-0.0084623000301585,-0.0135648591815691,-0.015451209759227,-0.0152821389828347,-0.028288988711719,0.0430499551644352,0.0251455055637232,0.0028857938081497,-0.0187517981372633,-0.0288058828776414,0.0272902513863643,0.0032625930699525,0.0014717767443116,-0.0088010251639839,-0.0059425478932657,-0.0135648591815691,0.0019154851082967,0.0012344683492269
EG_SCALE_MATID__ETABIN2__1up,0.0105456065981191,0.0096109170596921,-0.0080398355421768,0.0079709469512319,-0.0009858180953945,-0.0248179013588386,-0.0045935372964399,0.0800585894310349,0.0066064647810404,-0.034794690972844,-0.020694276013296,0.0007847927933156,0.0007812979019141,-0.0013672581498788,-0.0013304581092325,-0.0124604680375699,0.0080814343311873,0.0011228393802257,0.0009516074105594,-0.0010934116955494,-0.0013375699174036,-0.0681819616119103,-0.0774648666062979,-0.0099534740956493,0.0049556310107236,-0.0016959041115412,0.9635361014312662,0.0018744360044162,-0.0685247563305167,0.0074764777016856,-0.0041736201833658,-0.0003567866279221,-0.0003100015444788,-0.0008997441795201,-0.0007688316958415,0.0105121605746316,-0.0047826822590125,-0.0003079161446701,-0.0017120740232845,-0.0002122267936487,0.0321278295500309,0.0611111585393225,0.0237986614084466,0.0074764777016855,0.0131490704768777,0.0023552996626129
EG_SCALE_MATPP0__ETABIN0__1up,0.0057491988660176,0.0005266451620939,-0.0128775646554483,-0.0011863061896216,0.0023718987432112,0.0037292349790845,0.0270022237570155,-0.0013372128135272,-0.0290868960920341,0.0005890824222985,-0.00605571068549,-0.0098538372124497,-0.0124309903315155,0.0006427089523655,0.0005587975526189,0.000195840066738,-0.0117704223534964,-0.0136314006892969,-0.0152358128438147,0.0005107197295827,0.0005718502518562,0.0012215069147331,0.001208953749868,0.0013578252867871,-0.0204572575806952,0.0006301939966445,0.0018744360044161,0.9933450376268278,0.0064162625559195,0.0182194797260334,0.0080056988576058,0.0097815578611678,0.019167135859777,0.000157364637016,0.0004025223934618,0.001449282938201,0.0166926402392846,0.0203169797384097,0.0005881823711321,0.0001234413028757,0.0007364039122734,-0.0004414618403106,0.0008262477222461,0.0182194797260333,-6.164407473663719e-05,-0.0011482555126257
EG_SCALE_MATPP0__ETABIN1__1up,0.0420204855897265,0.008771978025354,-0.0255495941305768,0.0807734619641763,-0.0075972875930147,-0.1103692291971283,-0.0103910538671042,0.069637236257881,0.0199258869896256,-0.0303393630737778,-0.0824904562682083,0.0032783452887133,0.0035203080854177,-0.0070077977690742,-0.0066597912708097,-0.0109634099445935,0.0283195737975706,0.0046402264259779,0.0043003407740772,-0.0056010899357918,-0.0066980905125267,-0.057791966356114,-0.0681879640938747,-0.0421517728754164,0.0171126884717754,-0.008462300030159,-0.0685247563305124,0.0064162625559196,0.8002095564850339,0.0133073986868534,-0.0155777392619749,-0.0031665461122848,-0.0055955399312715,-0.0078809379429029,-0.0068659719094777,0.0084867894369468,-0.0213564811959731,-0.0064942496640284,-0.0135096828165487,-0.0017648347038469,0.0290126332525962,0.2049517574275609,0.0834480757545414,0.0133073986868531,0.0470463618453683,-0.0098683465172531
EG_SCALE_PEDESTAL__1up,-0.0334768669827834,-0.0053148370422317,0.0496140826221276,-0.0139540224566166,-0.0068055658013328,0.0063673820665392,-0.0503698732769833,-0.0115905904841204,0.0673112351906145,0.0049802498707499,0.043059031440781,0.0059598073114106,0.008649563942596,-0.0119798590732211,-0.0108869120687403,0.0018689663199104,0.0784396634014648,0.0080476528598889,0.0106382561844532,-0.0095591470675295,-0.0109584014940464,0.0095418329798043,0.0117654086814202,0.0032501694695135,0.0484524777731631,-0.0135648591815699,0.0074764777016857,0.0182194797260326,0.0133073986868494,0.9095549478100624,-0.05568198070902,-0.0114330953862871,-0.0262653029684979,-0.0007376387646665,-0.002790795270521,-0.0099557035341216,-0.1224800444904759,-0.0297231147248488,-0.006762925665864,-0.0010655454086325,-0.0121707742580169,-0.0641472185614851,-0.0336549787024589,-0.0904450521899381,-0.0069207645822655,0.0111175384402842
EG_SCALE_PS__ETABIN0__1up,-0.0160845345331496,0.0008256708044086,0.0225443096488316,0.0028142021543913,0.0061509494103758,-0.0093487104668842,-0.0033576105453436,0.0017407213227774,0.0199608456345909,-0.0007316936637977,0.0190882767873003,-0.0105328826229209,-0.0126424659739686,-0.0132848156564832,-0.0123608124215602,-0.0002324177767934,0.0654232692233601,-0.014634029304124,-0.0155109696285852,-0.010604735853578,-0.0124256349707445,-0.0019746265676568,-0.0014806080737536,-0.0033576131384756,0.0164624617688027,-0.0154512097592267,-0.0041736201833658,0.0080056988576058,-0.0155777392619739,-0.0556819807090205,0.9450543913860991,0.0125381869217956,0.0240101997625252,0.0186000381279911,0.0129870491730299,0.0024173465858022,-0.1441828568881402,0.0267633102701457,0.0193655490574189,0.0024804589619658,0.001927371375769,0.0015528349174677,-0.0015884666131206,-0.0556819807090203,-0.0229999112109018,-0.0003379831448762
EG_SCALE_PS__ETABIN3__1up,-0.0160728284048342,0.0019647454349289,0.0136865031042254,0.0006424920163689,0.009103404153311,-0.0024695458889388,-0.0118042036828494,-0.0019886207899448,0.0293752005901008,0.0009000277871133,0.0036289702502646,0.0327556880214265,0.0420872654475575,-0.0130448798379976,-0.0122259065562408,0.0003137489473241,-0.0069410629254576,0.0450304628151917,0.0517179342810589,-0.0104138730318613,-0.0122864911847533,0.001464334680401,0.001855460498827,-0.0008676618857631,0.0367165934277037,-0.0152821389828346,-0.0003567866279218,0.0097815578611679,-0.003166546112285,-0.0114330953862871,0.0125381869217956,0.9481023382835992,-0.1091469682121282,0.0246453457599064,0.0180070550349774,0.0052797813664051,0.0489028419229151,-0.1240880028668567,0.0278580993260337,0.00363481165429,0.0034794712973447,-0.0013447839446887,-0.0016335709589765,-0.011433095386287,0.0156168655174685,-0.006895296677909
EG_SCALE_PS__ETABIN4__1up,-0.0280008471981439,0.0049032290084765,0.0281282683848907,0.0011950738002089,0.0228750218127359,-0.0047053151226626,-0.026937339533265,-0.0049581354635128,0.0594671593541315,0.0022490526019226,0.0068864533619181,0.0601852949108413,0.0790800410080362,-0.0240380982975896,-0.0225944201265699,0.0007822339603326,-0.0086651237606308,0.0823921347612078,0.0972600627463886,-0.0191916069141889,-0.0226937711270781,0.0036423920592261,0.0046489591056275,-0.0016314722086121,0.0711383827876895,-0.0282889887117181,-0.0003100015444789,0.0191671358597769,-0.0055955399312714,-0.0262653029684975,0.0240101997625251,-0.1091469682121278,0.7646783575469656,0.0520640638796872,0.0387030302557549,0.0133011714200427,0.1027829282934329,-0.2702500070430217,0.060503197266084,0.0079572346452944,0.0085879232423682,-0.0043487378551914,-0.0041489176084178,-0.0262653029684975,0.0365873389529898,-0.0144293670853715
EG_SCALE_PS__ETABIN5__1up,-0.0365560361364351,0.004571815747813,0.0019240841702804,0.0002690676047851,0.0265040336915253,-0.005610956706162,-0.0876806933470963,-0.0032721276718108,0.0431784791382967,0.0015311582695566,0.0241867530935564,-0.0125981231406031,-0.0155048707821797,0.0354496682384086,0.0360524648422726,0.0005703508411428,-0.0067800593582142,-0.0173953991579996,-0.019065676516092,0.0282900066545319,0.0364532262134555,0.0016655448372174,0.0034020854783617,-0.0017689788233345,-0.0036563512684923,0.0430499551644351,-0.0008997441795194,0.0001573646370158,-0.0078809379429056,-0.0007376387646652,0.0186000381279913,0.0246453457599068,0.0520640638796883,0.7971603998859997,-0.1588142292112153,0.0135510423938148,0.0784496167562155,0.0612906817395175,-0.2643773957398669,-0.034614154482254,0.0082231115371346,-0.0256760114692444,-0.0154207199113012,-0.0007376387646653,0.0938935240096068,-0.0084521903821792
EG_SCALE_PS__ETABIN6__1up,-0.0281806094907536,0.0039556769870529,0.0017499593246613,0.0001926326051575,0.0227787469713365,-0.004894454145394,-0.0527319475311917,-0.0029066992857164,0.0265748057354296,0.0013595175297403,0.0205733425730967,-0.0078867467514497,-0.0097293178897518,0.0200829463415883,0.021409308049564,0.0005053955449103,-0.0012100450839982,-0.010871928459265,-0.0119747991771007,0.0160272839804171,0.021700092724161,0.0014986296643948,0.0030198482799393,-0.0015429996868619,-0.0016527723050427,0.0251455055637226,-0.0007688316958416,0.0004025223934615,-0.006865971909478,-0.0027907952705232,0.0129870491730303,0.0180070550349778,0.0387030302557557,-0.158814229211213,0.8741517492853845,0.0117268465727206,0.0615233399098492,0.0461112052605632,-0.2109838118508413,-0.0277406108110983,0.0070738625087106,-0.0215049152444579,-0.0129417045454741,-0.0027907952705229,0.074733383598246,-0.0067108017093501
EG_SCALE_PS__ETABIN8__1up,0.0068017207971967,-0.1367553720590823,0.0048982277287004,-0.0001894730959602,0.0115419608005455,-0.0013435960422838,-0.0119718958233478,-0.030585596294296,0.0092988287920474,0.0103118100911053,-0.0057822220559446,-0.0004050955513903,-0.0011194940303729,0.0027916304616278,0.0023338669677972,0.0037506987341918,0.0053447805489407,-0.0004476272706918,-0.0013980326134772,0.0022250498246544,0.0023589269829267,0.0500185276379867,0.026226153980672,-0.0008305157060971,0.0034856201560692,0.0028857938081491,0.0105121605746316,0.001449282938201,0.0084867894369458,-0.0099557035341212,0.0024173465858022,0.0052797813664053,0.0133011714200429,0.0135510423938152,0.0117268465727212,0.6166623007774403,0.0220468885045291,0.0161309141050846,0.0201312770924445,0.0027756622491805,-0.2714877088760786,-0.0022332657601519,0.0044239714307122,-0.0099557035341215,0.0206133833626093,0.1246960825964294
EG_SCALE_S12__ETABIN0__1up,-0.0550365971837016,0.0079586517536463,0.0486387717488957,0.0048936948496469,0.0460912356137811,-0.0138759966465453,-0.0321241819505567,-0.0024438494912889,0.0528852207857817,0.001202805566519,0.0308108410323172,-0.0250733659898354,-0.0306661233429759,-0.0155110228744924,-0.0148622691957657,0.0004288134702409,0.1290867589468657,-0.0346379552154432,-0.0377169352301507,-0.0123856106896968,-0.014888557309019,0.0008754748701869,0.0023565871580767,-0.0050025270393994,0.0324463936174407,-0.0187517981372625,-0.0047826822590117,0.0166926402392849,-0.0213564811959705,-0.1224800444904761,-0.1441828568881406,0.048902841922915,0.1027829282934331,0.0784496167562141,0.0615233399098478,0.0220468885045291,0.5355527570977807,0.1211031642081165,0.1006074044322839,0.0134797759820631,0.0153277626861033,0.0180701808182297,0.0066999337572926,-0.1224800444904758,-0.1123998740760726,-0.0229167318651263
EG_SCALE_S12__ETABIN1__1up,-0.0342104049812835,0.0059750996302021,0.0303429762188609,0.001320308218123,0.0278931593845309,-0.0055281594785359,-0.0309598372731888,-0.0060203642707195,0.0641947409632779,0.0027294286640523,0.0080037825075419,0.0616874988067271,0.08150117470173,-0.0244285982111115,-0.0230124935408614,0.0009461814933413,-0.0064100219083237,0.0842954005082535,0.1003044967158265,-0.0195029726414089,-0.0231093945359554,0.0044677979931434,0.0056262432536541,-0.0019133327227562,0.0747278337667306,-0.0288058828776409,-0.0003079161446696,0.0203169797384098,-0.0064942496640284,-0.0297231147248482,0.0267633102701455,-0.1240880028668571,-0.2702500070430214,0.061290681739517,0.0461112052605625,0.016130914105085,0.1211031642081166,0.686639163670419,0.0729827978941665,0.0096295285497487,0.010420168976098,-0.0056676415429801,-0.0052482408263301,-0.0297231147248482,0.0453308797312063,-0.0173901360475991
EG_SCALE_S12__ETABIN2__1up,-0.0511109534941828,0.0067297888155054,0.0017353071582492,0.0006001746515085,0.0391124624115668,-0.0094401078310062,-0.0590508112537689,-0.0049162327010965,0.0298765750658463,0.0023047923301847,0.0386389735845236,-0.0102662124785167,-0.0125478448413437,0.0210433181385697,0.0241820281802654,0.000864324237782,0.0027741949112451,-0.0141392295201892,-0.0154653926117871,0.0167850783324867,0.0246244446362454,0.0024141824572158,0.005161928161855,-0.0029985690485622,-0.0020226375642434,0.0272902513863671,-0.0017120740232845,0.0005881823711326,-0.0135096828165472,-0.0067629256658615,0.0193655490574184,0.0278580993260331,0.0605031972660827,-0.2643773957398715,-0.2109838118508418,0.0201312770924449,0.1006074044322821,0.0729827978941655,0.6431804295275473,-0.0469178634900952,0.0120986884082958,-0.0383609993417595,-0.0231693560421827,-0.006762925665862,0.1296946855478869,-0.0113202958490391
EG_SCALE_S12__ETABIN3__1up,-0.0064893846283191,0.0009312973738252,0.0003358598665718,3.546459344956726e-05,0.0053947344780288,-0.0012448925017924,-0.0072416003131372,-0.0006915721853799,0.0037758120302499,0.0003235458890646,0.0050713163404377,-0.0012496645317248,-0.0015358799767598,0.0024358301823299,0.0028968125578331,0.00012063053909,0.0006723002796091,-0.0017186985072125,-0.0018938846750266,0.0019433474073081,0.0029531466979271,0.0003525772007168,0.0007211226719478,-0.0003946628674897,-0.0001325822788635,0.0032625930699522,-0.0002122267936487,0.0001234413028758,-0.0017648347038472,-0.0010655454086327,0.0024804589619658,0.00363481165429,0.0079572346452945,-0.034614154482253,-0.0277406108110983,0.0027756622491804,0.0134797759820633,0.0096295285497489,-0.0469178634900957,0.9938092866692942,0.0016667763063549,-0.0051211434562811,-0.0030986635847291,-0.0010655454086328,0.0171123336390323,-0.0015229230410678
EG_SCALE_S12__ETABIN4__1up,0.0051567475090023,-0.1053753373796056,0.0053769908928877,0.0031550287459501,0.0067098761157592,-0.0068364748660404,-0.0061462783586486,-0.106209712654469,0.0047731907408148,0.0440557612294728,-0.0063672891296835,-0.0003588666501167,-0.0007905297646683,0.0014474140087858,0.0011951434685867,0.0158391501213257,0.0030532880768141,-0.0004301274205392,-0.0009855984694979,0.0011534030822275,0.0012095474845636,0.1072435880677629,0.1008997842423746,-0.0028029994405687,0.0017322541422356,0.0014717767443123,0.0321278295500362,0.0007364039122735,0.0290126332525969,-0.0121707742580136,0.0019273713757685,0.0034794712973441,0.0085879232423677,0.0082231115371334,0.0070738625087102,-0.2714877088760881,0.0153277626861025,0.0104201689760987,0.0120986884082965,0.0016667763063549,0.7776212205692765,0.0070369585533837,0.0083423821041039,-0.012170774258012,0.0147661737382921,0.1047225665941371
EG_SCALE_S12__ETABIN5__1up,0.0403021164721205,0.0014913664727958,0.0451420061677404,0.0566913824405617,-0.017825892344359,0.1435457392041176,0.0201282313750179,0.0207877219010144,-0.011630917893327,-0.0091381137585098,-0.0875618757025456,-0.0006413430419701,-0.000568856175421,-0.0075255462665105,-0.0069101066290371,-0.003400734255219,0.003994795004119,-0.0009081963496171,-0.0007023205572692,-0.0060135663909164,-0.0069534837639142,-0.015688563760874,-0.021139866353904,0.0624298580067461,-0.0019462065831663,-0.008801025163984,0.0611111585393275,-0.0004414618403104,0.2049517574275608,-0.0641472185614858,0.0015528349174675,-0.0013447839446888,-0.0043487378551917,-0.0256760114692441,-0.0215049152444583,-0.0022332657601514,0.0180701808182289,-0.0056676415429806,-0.0383609993417618,-0.005121143456281,0.0070369585533829,0.3341529575344829,-0.3165814896848725,-0.0641472185614844,-0.04883283859982,-0.0125473784144034
EG_SCALE_S12__ETABIN6__1up,0.0291854328107042,0.0030286339429762,0.0204944803601789,-0.0446841376583023,-0.0116995924331567,0.0578643053497821,0.0087953486873276,0.010814589071332,-0.0028068489899898,-0.0047461403449235,-0.0623758022485885,0.0002490616695051,0.0003263180763991,-0.0050464817591986,-0.0046956346973656,-0.0018052425214104,0.0066066273820224,0.0003513574964812,0.0003966313526271,-0.0040325845910459,-0.0047300823618893,-0.0078918347182439,-0.0113131929024763,0.0252335874550668,0.0017869682309076,-0.0059425478932666,0.0237986614084385,0.0008262477222461,0.0834480757545425,-0.0336549787024576,-0.0015884666131211,-0.001633570958976,-0.0041489176084173,-0.0154207199112984,-0.012941704545473,0.004423971430713,0.0066999337572921,-0.0052482408263289,-0.0231693560421802,-0.0030986635847291,0.0083423821041038,-0.3165814896848747,0.8306380757491675,-0.0336549787024604,-0.0197340033575706,-0.0171691932404814
EG_SCALE_TOPOCLUSTER_THRES__1up,-0.0334768669827843,-0.0053148370422321,0.0496140826221268,-0.0139540224566171,-0.0068055658013323,0.0063673820665368,-0.0503698732769836,-0.0115905904841215,0.067311235190615,0.0049802498707503,0.0430590314407821,0.0059598073114106,0.0086495639425959,-0.011979859073221,-0.0108869120687402,0.0018689663199106,0.0784396634014646,0.0080476528598889,0.0106382561844532,-0.0095591470675294,-0.0109584014940462,0.0095418329798053,0.0117654086814212,0.0032501694695125,0.0484524777731635,-0.0135648591815696,0.0074764777016848,0.0182194797260324,0.0133073986868463,-0.0904450521899364,-0.05568198070902,-0.0114330953862871,-0.0262653029684973,-0.0007376387646653,-0.0027907952705213,-0.0099557035341224,-0.1224800444904765,-0.0297231147248483,-0.006762925665862,-0.0010655454086325,-0.0121707742580124,-0.0641472185614877,-0.0336549787024604,0.9095549478100624,-0.0069207645822612,0.0111175384402853
EG_SCALE_WTOTS1__ETABIN0__1up,-0.0384713556236313,0.0075806209591242,0.0108133249861456,-0.0041045551295398,0.0110279795034145,0.0267786002357686,-0.0037353276327085,-0.0099290691189539,0.0024728324610352,0.0042678893718038,-0.1072702010431742,-0.0006648765523355,-0.001490847480618,0.0015779569011939,0.0009332591135747,0.0013320860423607,0.0020315960015478,-0.0006990321986626,-0.0019265681347848,0.0012897569444549,0.0008423922029448,0.0105127293840227,0.0079814025827359,0.0095710322699373,-0.000227997462894,0.0019154851082979,0.0131490704768762,-6.164407473641551e-05,0.0470463618453621,-0.0069207645822613,-0.0229999112109017,0.0156168655174686,0.0365873389529901,0.0938935240096071,0.0747333835982447,0.0206133833626099,-0.1123998740760725,0.0453308797312064,0.1296946855478891,0.0171123336390322,0.0147661737382906,-0.0488328385998188,-0.0197340033575787,-0.006920764582262,0.7865692041147192,-0.0556345668241805
EG_SCALE_WTOTS1__ETABIN1__1up,-0.0034872938600483,0.0313467425930824,-0.0068134743302566,0.0028484090934366,0.0006015425374045,-0.0098478168311773,0.0025951615869868,-0.0193499667498594,-0.0039522642284826,0.0059924861710141,0.0465831688445692,0.0024631018974319,0.0029506565123943,0.0009603426049297,0.0009946169730456,0.0022149683915847,-0.0104690420820405,0.0033751831194817,0.0036498717691986,0.0007653820643812,0.00101139756411,0.0308986273775993,0.0099657190251396,-0.0033626412192358,-0.0020692626070929,0.0012344683492268,0.0023552996626148,-0.0011482555126257,-0.0098683465172526,0.0111175384402851,-0.0003379831448762,-0.0068952966779092,-0.0144293670853717,-0.0084521903821795,-0.0067108017093498,0.1246960825964273,-0.0229167318651264,-0.017390136047599,-0.0113202958490394,-0.0015229230410677,0.1047225665941411,-0.0125473784144033,-0.0171691932404812,0.0111175384402854,-0.0556345668241808,0.159478713801822
